…
# parsing modules work

    Code
      get_antismash_modules(get_antismash_features(json))
    Output
      # A tibble: 132 x 6
         file  location          complete type    iterative contig
         <chr> <chr>             <lgl>    <chr>   <lgl>     <chr> 
       1 1     [295017:295515]   FALSE    unknown FALSE     ""    
       2 1     [312427:312892]   FALSE    unknown FALSE     ""    
       3 1     [314517:315729]   FALSE    nrps    FALSE     ""    
       4 1     [316751:316937]   FALSE    unknown FALSE     ""    
       5 1     [317020:320092]   TRUE     nrps    FALSE     ""    
       6 1     [320134:324067]   TRUE     nrps    FALSE     ""    
       7 1     [1019210:1020041] FALSE    pks     FALSE     ""    
       8 1     [1022529:1022739] FALSE    unknown FALSE     ""    
       9 1     [1022816:1023860] FALSE    nrps    FALSE     ""    
      10 1     [1024165:1024666] FALSE    unknown FALSE     ""    
      # ... with 122 more rows
