Parse Antismash
…
Modules

Now, we extract the modules:

(modules <- get_antismash_modules(features))
#> # A tibble: 132 × 6
#>    file      location          complete type    iterative contig
#>    <chr>     <chr>             <lgl>    <chr>   <lgl>     <chr> 
#>  1 antismash [295017:295515]   FALSE    unknown FALSE     ""    
#>  2 antismash [312427:312892]   FALSE    unknown FALSE     ""    
#>  3 antismash [314517:315729]   FALSE    nrps    FALSE     ""    
#>  4 antismash [316751:316937]   FALSE    unknown FALSE     ""    
#>  5 antismash [317020:320092]   TRUE     nrps    FALSE     ""    
#>  6 antismash [320134:324067]   TRUE     nrps    FALSE     ""    
#>  7 antismash [1019210:1020041] FALSE    pks     FALSE     ""    
#>  8 antismash [1022529:1022739] FALSE    unknown FALSE     ""    
#>  9 antismash [1022816:1023860] FALSE    nrps    FALSE     ""    
#> 10 antismash [1024165:1024666] FALSE    unknown FALSE     ""    
#> # … with 122 more rows
…
BigScape

Set up

bigscape_directory <- system.file(
  "bigscape_example_directory",package =  "RauENVS"
  )
# Edit this to your actual file!!! and remove or comment the example file
# For example:
# bigscape_directory <- "User/MyPath/bigscape"

First, we will create a DataFrame with clustering information:

(bigscape_clusters <- get_bigscape_clustering(bigscape_directory))
#> # A tibble: 141 × 3
#>    bgc_id                 class  GCF_c0.30
#>    <chr>                  <chr>  <chr>    
#>  1 10B3s2                 Others 12       
#>  2 10B4                   Others 16       
#>  3 5B2new                 Others 80       
#>  4 5C1                    Others 92       
#>  5 5C1_4.region001        Others 92       
#>  6 CCC2s4new              Others 92       
#>  7 CCC2s4new_14.region001 Others 92       
#>  8 10B2                   Others 95       
#>  9 10B2new                Others 95       
#> 10 10I4                   Others 95       
#> # … with 131 more rows
…
Finally, we read network information:

(bigscape_networks <- get_bigscape_networks(bigscape_directory))
#> # A tibble: 41 × 6
#>    bgc_id_1              bgc_id_2             raw_distance square…¹ cutoff class
#>    <chr>                 <chr>                       <dbl>    <dbl>  <dbl> <chr>
#>  1 10I5_27.region001     RTS3_6.region001         1.41e- 4    1.00     0.3 C:/U…
#>  2 RTI3                  RTI3_47.region001        4.16e-17    1        0.3 C:/U…
#>  3 LG9s2new_12.region001 RTB1new                  7.56e- 3    0.985    0.3 C:/U…
#>  4 Cout2_1.region001     RTI4new_10.region001     2.75e- 1    0.526    0.3 C:/U…
#>  5 5I3new                RTC2s1_31.region001      1.87e- 2    0.963    0.3 C:/U…
#>  6 5I2new_9.region001    RTI2s1                   2.48e- 1    0.565    0.3 C:/U…
#>  7 Cout2                 Gout2_30.region001       1.26e- 4    1.00     0.3 C:/U…
#>  8 CA11s2_11.region001   Cout2_8.region001        2.03e- 1    0.635    0.3 C:/U…
#>  9 5I2_1.region001       CCC3s4                   4.16e-17    1        0.3 C:/U…
#> 10 CCC2s1                CCI2s3_7.region001       2.96e- 1    0.496    0.3 C:/U…
#> # … with 31 more rows, and abbreviated variable name ¹​squared_similarity
…
